r audit – Data Analysis Learning Portfolio
…
ℹ Use `spec()` to retrieve the full column specification for this data.
ℹ Specify the column types or set `show_col_types = FALSE` to quiet this message.

Code

# could specify column types but won't for the audit
school_quality_tib

# A tibble: 1,000 × 12
   school_year report_year dbn    school_name            report_type school_type
         <dbl>       <dbl> <chr>  <chr>                  <chr>       <chr>      
 1        2020        2021 01M015 P.S. 015 Roberto Clem… EMS         Elementary 
 2        2020        2021 01M015 P.S. 015 Roberto Clem… EMS         Elementary 
 3        2020        2021 01M015 P.S. 015 Roberto Clem… EMS         Elementary 
 4        2020        2021 01M015 P.S. 015 Roberto Clem… EMS         Elementary 
 5        2020        2021 01M015 P.S. 015 Roberto Clem… EMS         Elementary 
 6        2020        2021 01M015 P.S. 015 Roberto Clem… EMS         Elementary 
 7        2020        2021 01M015 P.S. 015 Roberto Clem… EMS         Elementary 
 8        2020        2021 01M015 P.S. 015 Roberto Clem… EMS         Elementary 
 9        2020        2021 01M015 P.S. 015 Roberto Clem… EMS         Elementary 
10        2020        2021 01M015 P.S. 015 Roberto Clem… EMS         Elementary 
# ℹ 990 more rows
# ℹ 6 more variables: metric_variable_name <chr>, metric_display_name <chr>,
#   number_of_students <dbl>, metric_value <dbl>,
#   comparison_group_average <dbl>, metric_score <lgl>
…
